Tugas 2 Anreg
…
data_susenas <- read_xlsx("C:\\Users\\bagan\\Downloads\\Susenas Anreg.xlsx")

colnames(data_susenas) <- c(
  "pengeluaran_makanan",
  "pengeluaran_total",
  "kalori",
  "protein",
  "lemak",
  "karbohidrat"
)

data_susenas

# A tibble: 199 × 6
   pengeluaran_makanan pengeluaran_total kalori protein lemak karbohidrat
                 <dbl>             <dbl>  <dbl>   <dbl> <dbl>       <dbl>
 1            1108714.           816940.  2612.    69.1  30.1        472.
 2            7770000           1726190.  3656.   142.  119.         455.
 3            2279700            935348.  2009.    46.3  39.6        256.
 4            1731429.          1411923.  2290.    85.2  63.1        354.
 5            3316714.          1361226.  2152.    65.1  53.0        272.
 6            3710571.          6872385.  1566.    47.1  33.1        178.
 7            2097857.           692871.  1593.    45.3  38.6        213.
 8            3379071.          1889385.  1817.    54.1  45.1        277.
 9            6348000.          6567042.  4388.   105.  206.         446.
10            1389943.          1136096.  1985.    50.1  44.3        316.
# ℹ 189 more rows
…
